Small Group Collaboration - Session 5
…
Female teaching = 28%

Female tenure track = 15%

Female tenured = 12%

Suppose we want to ensure that we have a representative proportion of faculty who are women and faculty of different tenure statuses.

How would we go about collecting a representative sample that accounts for these demographic characteristics?

Sampling Issues

In the evals data, the courses included in the dataset were only taught by 94 unique professors.

## # A tibble: 94 x 2
##    prof_ID     n
##      <int> <int>
##  1       1     4
##  2       2     3
##  3       3     2
##  4       4     8
##  5       5     6
##  6       6     7
##  7       7     5
##  8       8     7
##  9       9     7
## 10      10    10
## #  with 84 more rows
…
