Stat 313 - First Synchronous Meeting!
…
Data Types in R

loan50

## # A tibble: 50 x 6
##    state  term ownership income verified_income has_second_income
##    <fct> <dbl> <fct>      <dbl> <fct>           <lgl>            
##  1 NJ       60 rent       59000 Not Verified    FALSE            
##  2 CA       36 rent       60000 Not Verified    FALSE            
##  3 SC       36 mortgage   75000 Verified        FALSE            
##  4 CA       36 rent       75000 Not Verified    FALSE            
##  5 OH       60 mortgage  254000 Not Verified    FALSE            
##  6 IN       36 mortgage   67000 Source Verified FALSE            
##  7 NY       36 rent       28800 Source Verified FALSE            
##  8 MO       36 mortgage   80000 Not Verified    FALSE            
##  9 FL       60 rent       34000 Not Verified    FALSE            
## 10 FL       60 mortgage   80000 Source Verified TRUE             
## #  with 40 more rows
…
