Assessing Independence
…
Repeated Observations

evals %>% 
  count(prof_id, sort = TRUE) 

## # A tibble: 94 x 2
##    prof_id     n
##      <int> <int>
##  1      34    13
##  2      49    13
##  3      82    11
##  4      10    10
##  5      20    10
##  6      58    10
##  7      71    10
##  8      19     9
##  9      70     9
## 10       4     8
## #  with 84 more rows
