Inference for Regression
…
What is the key assumption about the original sample when bootstrapping?

Bootstrapping with replacement is done row-by-row, so the original pairs of score and age are always kept together.

Finding Bootstrap Statistics

bootstrap_slope <- evals_small %>% 
  specify(formula = score ~ age) %>%
  generate(reps = 1000, type = "bootstrap") %>% 
  calculate(stat = "slope")

bootstrap_slope

## # A tibble: 1,000 x 2
##    replicate      stat
##        <int>     <dbl>
##  1         1 -0.00617 
##  2         2  0.000574
##  3         3  0.00279 
##  4         4 -0.000284
##  5         5 -0.00523 
##  6         6 -0.00379 
##  7         7 -0.00398 
##  8         8 -0.00201 
##  9         9 -0.00467 
## 10        10 -0.00102 
## #  with 990 more rows
…
It can be mathematically proven that the null distribution of this statistic is a \(t\)-distribution

The distribution has degrees of freedom equal to \(n - 2 = 94 - 2\).

Lets Try Simulation Instead

null_slope <- evals_small %>% 
  specify(formula = score ~ age) %>%
  hypothesize(null = "independence") %>% 
  generate(reps = 1000, type = "permute") %>% 
  calculate(stat = "slope")

null_slope

## # A tibble: 1,000 x 2
##    replicate       stat
##        <int>      <dbl>
##  1         1 -0.00366  
##  2         2  0.0154   
##  3         3  0.00635  
##  4         4  0.00376  
##  5         5 -0.00755  
##  6         6  0.0000792
##  7         7  0.00228  
##  8         8 -0.00229  
##  9         9  0.00526  
## 10        10  0.00736  
## #  with 990 more rows
…
